impl/testbench.vcd
$date
  Sun Sep 18 18:27:13 2016
$end
$version
  GHDL v0
$end
$timescale
  1 fs
$end
$var reg 1 ! clk $end
$var reg 1 " ram_we $end
$var reg 8 # ram_address[7:0] $end
$var reg 8 $ ram_input[7:0] $end
$var reg 8 % ram_output[7:0] $end
$var reg 1 & ram_enable $end
$var reg 1 ' ram_ready $end
$var reg 8 ( mem_address[7:0] $end
$var reg 8 ) port_reg_in[7:0] $end
$var reg 8 * port_reg_out[7:0] $end
$var reg 1 + port_read $end
$var reg 1 , port_write $end
$var reg 1 - port_ready $end
$var reg 1 . halt $end
$var reg 1 / port_tb_writing $end
$scope module ram0 $end
$var reg 1 0 clock $end
$var reg 1 1 we $end
$var reg 8 2 address[7:0] $end
$var reg 8 3 datain[7:0] $end
$var reg 8 4 dataout[7:0] $end
$comment ram is not handled $end
$var reg 8 5 read_address[7:0] $end
$upscope $end
$scope module tis0 $end
$var reg 1 6 clk $end
$var reg 1 7 rst $end
$var reg 1 8 hlt $end
$var reg 8 9 io_in[7:0] $end
$var reg 8 : io_out[7:0] $end
$var reg 1 ; io_read $end
$var reg 1 < io_write $end
$var reg 1 = io_ready $end
$var reg 8 > mem_addr[7:0] $end
$var reg 8 ? mem_val[7:0] $end
$var reg 1 @ mem_enable $end
$var reg 1 A mem_ready $end
$var reg 8 B ip[7:0] $end
$var reg 8 C acc[7:0] $end
$var reg 8 D bak[7:0] $end
$var reg 8 E instr_coded[7:0] $end
$var reg 4 F instruction[3:0] $end
$var reg 4 G info1[3:0] $end
$var reg 8 H info2[7:0] $end
$comment fsm_state is not handled $end
$comment fsm_state_nx is not handled $end
$var reg 4 I src_index[3:0] $end
$var integer 32 J current_state $end
$var reg 1 K port_writing $end
$upscope $end
$enddefinitions $end
#0
0!
0"
bUUUUUUUU #
bUUUUUUUU $
bUUUUUUUU %
U&
0'
bUUUUUUUU (
bUUUUUUUU )
bUUUUUUUU *
0+
0,
0-
0.
0/
00
01
bUUUUUUUU 2
bUUUUUUUU 3
bUUUUUUUU 4
bUUUUUUUU 5
06
07
08
bUUUUUUUU 9
bUUUUUUUU :
0;
0<
0=
bUUUUUUUU >
bUUUUUUUU ?
U@
0A
bUUUUUUUU B
bUUUUUUUU C
bUUUUUUUU D
bUUUUUUUU E
bUUUU F
bUUUU G
bUUUUUUUU H
bUUUU I
b10000000000000000000000000000000 J
0K
#1000000
1!
1"
b00000000 #
b00011001 $
b00011001 %
0&
10
11
b00000000 2
b00011001 3
b00011001 4
b00000000 5
16
b00011001 ?
0@
b00000000 B
b00000000 C
b00000000 D
b0 J
#2000000
0!
00
06
#3000000
1!
b00000001 #
b00000010 $
b00000010 %
1&
b00000000 (
10
b00000001 2
b00000010 3
b00000010 4
b00000001 5
16
b00000000 >
b00000010 ?
1@
b1 J
#4000000
0!
00
06
#5000000
1!
b00000010 #
b00010110 $
b00010110 %
10
b00000010 2
b00010110 3
b00010110 4
b00000010 5
16
b00010110 ?
#6000000
0!
00
06
#7000000
1!
b00000011 #
b00000000 $
b00000000 %
10
b00000011 2
b00000000 3
b00000000 4
b00000011 5
16
b00000000 ?
#8000000
0!
00
06
#9000000
1!
b00000100 #
b00000111 $
b00000111 %
10
b00000100 2
b00000111 3
b00000111 4
b00000100 5
16
b00000111 ?
#10000000
0!
00
06
#11000000
1!
0"
b00000000 #
b00011001 %
1'
10
01
b00000000 2
b00011001 4
b00000000 5
16
b00011001 ?
1A
#12000000
0!
00
06
#13000000
1!
0&
10
16
0@
b00000001 B
b00011001 E
b1001 F
b0001 G
b10 J
#14000000
0!
00
06
#15000000
1!
1&
0'
b00000001 (
10
16
b00000001 >
1@
0A
b11 J
#16000000
0!
00
06
#17000000
1!
b00000001 #
b00000010 %
1'
10
b00000001 2
b00000010 4
b00000001 5
16
b00000010 ?
1A
#18000000
0!
00
06
#19000000
1!
0&
10
16
0@
b00000010 B
b00000010 H
b100 J
#20000000
0!
00
06
#21000000
1!
0'
10
16
0A
b101 J
#22000000
0!
00
06
#23000000
1!
10
16
b00000010 C
b110 J
#24000000
0!
00
06
#25000000
1!
1&
b00000010 (
10
16
b00000010 >
1@
b1 J
#26000000
0!
00
06
#27000000
1!
b00000010 #
b00010110 %
1'
10
b00000010 2
b00010110 4
b00000010 5
16
b00010110 ?
1A
#28000000
0!
00
06
#29000000
1!
0&
10
16
0@
b00000011 B
b00010110 E
b0110 F
b10 J
#30000000
0!
00
06
#31000000
1!
0'
10
16
0A
b0001 I
b101 J
#32000000
0!
00
06
#33000000
1!
10
16
b1000 J
#34000000
0!
00
06
#35000000
1!
10
16
#36000000
0!
00
06
#37000000
1!
1&
b00000011 (
10
16
b00000011 >
1@
b1 J
#38000000
0!
00
06
#39000000
1!
b00000011 #
b00000000 %
1'
10
b00000011 2
b00000000 4
b00000011 5
16
b00000000 ?
1A
#40000000
0!
00
06
#41000000
1!
0&
10
16
0@
b00000100 B
b00000000 E
b0000 F
b0000 G
b10 J
#42000000
0!
00
06
#43000000
1!
0'
10
16
0A
b101 J
#44000000
0!
00
06
#45000000
1!
1&
b00000100 (
10
16
b00000100 >
1@
b1 J
#46000000
0!
00
06
#47000000
1!
b00000100 #
b00000111 %
1'
10
b00000100 2
b00000111 4
b00000100 5
16
b00000111 ?
1A
#48000000
0!
00
06
#49000000
1!
0&
10
16
0@
b00000101 B
b00000111 E
b0111 F
b10 J
#50000000
0!
00
06
#51000000
1!
0'
10
16
0A
b101 J
#52000000
0!
1.
00
06
18
