impl/testbench.vcd
$date
  Sun Sep 18 20:43:15 2016
$end
$version
  GHDL v0
$end
$timescale
  1 fs
$end
$var reg 1 ! clk $end
$var reg 1 " ram_we $end
$var reg 8 # ram_address[7:0] $end
$var reg 8 $ ram_input[7:0] $end
$var reg 8 % ram_output[7:0] $end
$var reg 1 & ram_enable $end
$var reg 1 ' ram_ready $end
$var reg 8 ( mem_address[7:0] $end
$var reg 8 ) port_reg_in[7:0] $end
$var reg 8 * port_reg_out[7:0] $end
$var reg 1 + port_read $end
$var reg 1 , port_write $end
$var reg 1 - port_ready $end
$var reg 3 . port_num[2:0] $end
$var reg 1 / halt $end
$var reg 1 0 port_tb_writing $end
$scope module ram0 $end
$var reg 1 1 clock $end
$var reg 1 2 we $end
$var reg 8 3 address[7:0] $end
$var reg 8 4 datain[7:0] $end
$var reg 8 5 dataout[7:0] $end
$comment ram is not handled $end
$var reg 8 6 read_address[7:0] $end
$upscope $end
$scope module tis0 $end
$var reg 1 7 clk $end
$var reg 1 8 rst $end
$var reg 1 9 hlt $end
$var reg 8 : io_in[7:0] $end
$var reg 8 ; io_out[7:0] $end
$var reg 1 < io_read $end
$var reg 1 = io_write $end
$var reg 1 > io_ready $end
$var reg 3 ? io_port[2:0] $end
$var reg 8 @ mem_addr[7:0] $end
$var reg 8 A mem_val[7:0] $end
$var reg 1 B mem_enable $end
$var reg 1 C mem_ready $end
$var reg 8 D ip[7:0] $end
$var reg 8 E acc[7:0] $end
$var reg 8 F bak[7:0] $end
$var reg 8 G instr_coded[7:0] $end
$var reg 4 H instruction[3:0] $end
$var reg 4 I info1[3:0] $end
$var reg 8 J info2[7:0] $end
$comment fsm_state is not handled $end
$comment fsm_state_nx is not handled $end
$var reg 4 K src_index[3:0] $end
$var integer 32 L current_state $end
$var reg 1 M port_writing $end
$upscope $end
$enddefinitions $end
#0
0!
0"
bUUUUUUUU #
bUUUUUUUU $
bUUUUUUUU %
U&
0'
bUUUUUUUU (
bUUUUUUUU )
bUUUUUUUU *
0+
0,
0-
bUUU .
0/
00
01
02
bUUUUUUUU 3
bUUUUUUUU 4
bUUUUUUUU 5
bUUUUUUUU 6
07
08
09
bUUUUUUUU :
bUUUUUUUU ;
0<
0=
0>
bUUU ?
bUUUUUUUU @
bUUUUUUUU A
UB
0C
bUUUUUUUU D
bUUUUUUUU E
bUUUUUUUU F
bUUUUUUUU G
bUUUU H
bUUUU I
bUUUUUUUU J
bUUUU K
b10000000000000000000000000000000 L
0M
#1000000
1!
1"
b00000000 #
b00011000 $
b00011000 %
0&
11
12
b00000000 3
b00011000 4
b00011000 5
b00000000 6
17
b00011000 A
0B
b00000000 D
b00000000 E
b00000000 F
b0 L
#2000000
0!
01
07
#3000000
1!
b00000001 #
b00001111 $
b00001111 %
1&
b00000000 (
11
b00000001 3
b00001111 4
b00001111 5
b00000001 6
17
b00000000 @
b00001111 A
1B
b1 L
#4000000
0!
01
07
#5000000
1!
b00000010 #
b00000000 $
b00000000 %
11
b00000010 3
b00000000 4
b00000000 5
b00000010 6
17
b00000000 A
#6000000
0!
01
07
#7000000
1!
b00000011 #
11
b00000011 3
b00000011 6
17
#8000000
0!
01
07
#9000000
1!
b00000100 #
b00000111 $
b00000111 %
11
b00000100 3
b00000111 4
b00000111 5
b00000100 6
17
b00000111 A
#10000000
0!
01
07
#11000000
1!
0"
b00000000 #
b00011000 %
1'
11
02
b00000000 3
b00011000 5
b00000000 6
17
b00011000 A
1C
#12000000
0!
01
07
#13000000
1!
0&
11
17
0B
b00000001 D
b00011000 G
b1000 H
b0001 I
b10 L
#14000000
0!
01
07
#15000000
1!
1&
0'
b00000001 (
11
17
b00000001 @
1B
0C
b11 L
#16000000
0!
01
07
#17000000
1!
b00000001 #
b00001111 %
1'
11
b00000001 3
b00001111 5
b00000001 6
17
b00001111 A
1C
#18000000
0!
01
07
#19000000
1!
0&
11
17
0B
b00000010 D
b00001111 J
b100 L
#20000000
0!
01
07
#21000000
1!
0'
11
17
0C
b1111 K
b101 L
#22000000
0!
01
07
#23000000
1!
1+
b111 .
11
17
1<
b111 ?
b1000 L
#24000000
0!
01
07
#25000000
1!
b00101010 )
0+
1-
10
11
17
b00101010 :
0<
1>
b00101010 J
#26000000
0!
01
07
#27000000
1!
0-
00
11
17
0>
b00101010 E
b110 L
#28000000
0!
01
07
#29000000
1!
1&
b00000010 (
11
17
b00000010 @
1B
b1 L
#30000000
0!
01
07
#31000000
1!
b00000010 #
b00000000 %
1'
11
b00000010 3
b00000000 5
b00000010 6
17
b00000000 A
1C
#32000000
0!
01
07
#33000000
1!
0&
11
17
0B
b00000011 D
b00000000 G
b0000 H
b0000 I
b10 L
#34000000
0!
01
07
#35000000
1!
0'
11
17
0C
b101 L
#36000000
0!
01
07
#37000000
1!
1&
b00000011 (
11
17
b00000011 @
1B
b1 L
#38000000
0!
01
07
#39000000
1!
b00000011 #
1'
11
b00000011 3
b00000011 6
17
1C
#40000000
0!
01
07
#41000000
1!
0&
11
17
0B
b00000100 D
b10 L
#42000000
0!
01
07
#43000000
1!
0'
11
17
0C
b101 L
#44000000
0!
01
07
#45000000
1!
1&
b00000100 (
11
17
b00000100 @
1B
b1 L
#46000000
0!
01
07
#47000000
1!
b00000100 #
b00000111 %
1'
11
b00000100 3
b00000111 5
b00000100 6
17
b00000111 A
1C
#48000000
0!
01
07
#49000000
1!
0&
11
17
0B
b00000101 D
b00000111 G
b0111 H
b10 L
#50000000
0!
01
07
#51000000
1!
0'
11
17
0C
b101 L
#52000000
0!
1/
01
07
19
