impl/testbench.vcd
$date
  Sun Sep 18 16:23:03 2016
$end
$version
  GHDL v0
$end
$timescale
  1 fs
$end
$var reg 1 ! clk $end
$var reg 1 " ram_we $end
$var reg 8 # ram_address[7:0] $end
$var reg 8 $ ram_input[7:0] $end
$var reg 8 % ram_output[7:0] $end
$var reg 1 & ram_enable $end
$var reg 1 ' ram_ready $end
$var reg 8 ( mem_address[7:0] $end
$var reg 8 ) port_reg[7:0] $end
$var reg 1 * port_read $end
$var reg 1 + port_write $end
$var reg 1 , halt $end
$scope module ram0 $end
$var reg 1 - clock $end
$var reg 1 . we $end
$var reg 8 / address[7:0] $end
$var reg 8 0 datain[7:0] $end
$var reg 8 1 dataout[7:0] $end
$comment ram is not handled $end
$var reg 8 2 read_address[7:0] $end
$upscope $end
$scope module tis0 $end
$var reg 1 3 clk $end
$var reg 1 4 rst $end
$var reg 1 5 hlt $end
$var reg 8 6 io_in[7:0] $end
$var reg 1 7 io_read $end
$var reg 8 8 io_out[7:0] $end
$var reg 1 9 io_write $end
$var reg 8 : mem_addr[7:0] $end
$var reg 8 ; mem_val[7:0] $end
$var reg 1 < mem_enable $end
$var reg 1 = mem_ready $end
$var reg 8 > ip[7:0] $end
$var reg 8 ? acc[7:0] $end
$var reg 8 @ bak[7:0] $end
$var reg 8 A instr_coded[7:0] $end
$var reg 4 B instruction[3:0] $end
$var reg 4 C info1[3:0] $end
$var reg 8 D info2[7:0] $end
$comment fsm_state is not handled $end
$var integer 32 E current_state $end
$upscope $end
$enddefinitions $end
#0
0!
0"
bUUUUUUUU #
bUUUUUUUU $
bUUUUUUUU %
U&
0'
bUUUUUUUU (
bUUUUUUUU )
0*
0+
0,
0-
0.
bUUUUUUUU /
bUUUUUUUU 0
bUUUUUUUU 1
bUUUUUUUU 2
03
04
05
bUUUUUUUU 6
07
bUUUUUUUU 8
09
bUUUUUUUU :
bUUUUUUUU ;
U<
0=
bUUUUUUUU >
bUUUUUUUU ?
bUUUUUUUU @
bUUUUUUUU A
bUUUU B
bUUUU C
bUUUUUUUU D
b10000000000000000000000000000000 E
#1000000
1!
1"
b00000000 #
b00001010 $
b00001010 %
0&
1-
1.
b00000000 /
b00001010 0
b00001010 1
b00000000 2
13
b00001010 ;
0<
b00000000 >
b00000000 ?
b00000000 @
b0 E
#2000000
0!
0-
03
#3000000
1!
b00000001 #
b11111111 $
b11111111 %
1&
b00000000 (
1-
b00000001 /
b11111111 0
b11111111 1
b00000001 2
13
b00000000 :
b11111111 ;
1<
b1 E
#4000000
0!
0-
03
#5000000
1!
b00000010 #
b01001100 $
b01001100 %
1-
b00000010 /
b01001100 0
b01001100 1
b00000010 2
13
b01001100 ;
#6000000
0!
0-
03
#7000000
1!
b00000011 #
b00000000 $
b00000000 %
1-
b00000011 /
b00000000 0
b00000000 1
b00000011 2
13
b00000000 ;
#8000000
0!
0-
03
#9000000
1!
b00000100 #
b00000111 $
b00000111 %
1-
b00000100 /
b00000111 0
b00000111 1
b00000100 2
13
b00000111 ;
#10000000
0!
0-
03
#11000000
1!
0"
b00000000 #
b00001010 %
1'
1-
0.
b00000000 /
b00001010 1
b00000000 2
13
b00001010 ;
1=
#12000000
0!
0-
03
#13000000
1!
0&
1-
13
0<
b00000001 >
b00001010 A
b1010 B
b0000 C
b10 E
#14000000
0!
0-
03
#15000000
1!
1&
0'
b00000001 (
1-
13
b00000001 :
1<
0=
b11 E
#16000000
0!
0-
03
#17000000
1!
b00000001 #
b11111111 %
1'
1-
b00000001 /
b11111111 1
b00000001 2
13
b11111111 ;
1=
#18000000
0!
0-
03
#19000000
1!
0&
1-
13
0<
b00000010 >
b11111111 D
b100 E
#20000000
0!
0-
03
#21000000
1!
0'
1-
13
0=
b11111111 ?
b101 E
#22000000
0!
0-
03
#23000000
1!
1&
b00000010 (
1-
13
b00000010 :
1<
b1 E
#24000000
0!
0-
03
#25000000
1!
b00000010 #
b01001100 %
1'
1-
b00000010 /
b01001100 1
b00000010 2
13
b01001100 ;
1=
#26000000
0!
0-
03
#27000000
1!
0&
1-
13
0<
b00000011 >
b01001100 A
b1100 B
b0100 C
b10 E
#28000000
0!
0-
03
#29000000
1!
1&
0'
b00000011 (
1-
13
b00000011 :
1<
0=
b11 E
#30000000
0!
0-
03
#31000000
1!
b00000011 #
b00000000 %
1'
1-
b00000011 /
b00000000 1
b00000011 2
13
b00000000 ;
1=
#32000000
0!
0-
03
#33000000
1!
0&
1-
13
0<
b00000100 >
b00000000 D
b100 E
#34000000
0!
0-
03
#35000000
1!
0'
1-
13
0=
b00000000 >
b101 E
#36000000
0!
0-
03
#37000000
1!
1&
b00000000 (
1-
13
b00000000 :
1<
b1 E
#38000000
0!
0-
03
#39000000
1!
b00000000 #
b00001010 %
1'
1-
b00000000 /
b00001010 1
b00000000 2
13
b00001010 ;
1=
#40000000
0!
0-
03
#41000000
1!
0&
1-
13
0<
b00000001 >
b00001010 A
b1010 B
b0000 C
b10 E
#42000000
0!
0-
03
#43000000
1!
1&
0'
b00000001 (
1-
13
b00000001 :
1<
0=
b11 E
#44000000
0!
0-
03
#45000000
1!
b00000001 #
b11111111 %
1'
1-
b00000001 /
b11111111 1
b00000001 2
13
b11111111 ;
1=
#46000000
0!
0-
03
#47000000
1!
0&
1-
13
0<
b00000010 >
b11111111 D
b100 E
#48000000
0!
0-
03
#49000000
1!
0'
1-
13
0=
b11111110 ?
b101 E
#50000000
0!
0-
03
#51000000
1!
1&
b00000010 (
1-
13
b00000010 :
1<
b1 E
#52000000
0!
0-
03
#53000000
1!
b00000010 #
b01001100 %
1'
1-
b00000010 /
b01001100 1
b00000010 2
13
b01001100 ;
1=
#54000000
0!
0-
03
#55000000
1!
0&
1-
13
0<
b00000011 >
b01001100 A
b1100 B
b0100 C
b10 E
#56000000
0!
0-
03
#57000000
1!
1&
0'
b00000011 (
1-
13
b00000011 :
1<
0=
b11 E
#58000000
0!
0-
03
#59000000
1!
b00000011 #
b00000000 %
1'
1-
b00000011 /
b00000000 1
b00000011 2
13
b00000000 ;
1=
#60000000
0!
0-
03
#61000000
1!
0&
1-
13
0<
b00000100 >
b00000000 D
b100 E
#62000000
0!
0-
03
#63000000
1!
0'
1-
13
0=
b00000000 >
b101 E
#64000000
0!
0-
03
#65000000
1!
1&
b00000000 (
1-
13
b00000000 :
1<
b1 E
#66000000
0!
0-
03
#67000000
1!
b00000000 #
b00001010 %
1'
1-
b00000000 /
b00001010 1
b00000000 2
13
b00001010 ;
1=
#68000000
0!
0-
03
#69000000
1!
0&
1-
13
0<
b00000001 >
b00001010 A
b1010 B
b0000 C
b10 E
#70000000
0!
0-
03
#71000000
1!
1&
0'
b00000001 (
1-
13
b00000001 :
1<
0=
b11 E
#72000000
0!
0-
03
#73000000
1!
b00000001 #
b11111111 %
1'
1-
b00000001 /
b11111111 1
b00000001 2
13
b11111111 ;
1=
#74000000
0!
0-
03
#75000000
1!
0&
1-
13
0<
b00000010 >
b11111111 D
b100 E
#76000000
0!
0-
03
#77000000
1!
0'
1-
13
0=
b11111101 ?
b101 E
#78000000
0!
0-
03
#79000000
1!
1&
b00000010 (
1-
13
b00000010 :
1<
b1 E
#80000000
0!
0-
03
#81000000
1!
b00000010 #
b01001100 %
1'
1-
b00000010 /
b01001100 1
b00000010 2
13
b01001100 ;
1=
#82000000
0!
0-
03
#83000000
1!
0&
1-
13
0<
b00000011 >
b01001100 A
b1100 B
b0100 C
b10 E
#84000000
0!
0-
03
#85000000
1!
1&
0'
b00000011 (
1-
13
b00000011 :
1<
0=
b11 E
#86000000
0!
0-
03
#87000000
1!
b00000011 #
b00000000 %
1'
1-
b00000011 /
b00000000 1
b00000011 2
13
b00000000 ;
1=
#88000000
0!
0-
03
#89000000
1!
0&
1-
13
0<
b00000100 >
b00000000 D
b100 E
#90000000
0!
0-
03
#91000000
1!
0'
1-
13
0=
b00000000 >
b101 E
#92000000
0!
0-
03
#93000000
1!
1&
b00000000 (
1-
13
b00000000 :
1<
b1 E
#94000000
0!
0-
03
#95000000
1!
b00000000 #
b00001010 %
1'
1-
b00000000 /
b00001010 1
b00000000 2
13
b00001010 ;
1=
#96000000
0!
0-
03
#97000000
1!
0&
1-
13
0<
b00000001 >
b00001010 A
b1010 B
b0000 C
b10 E
#98000000
0!
0-
03
#99000000
1!
1&
0'
b00000001 (
1-
13
b00000001 :
1<
0=
b11 E
#100000000
0!
0-
03
#101000000
1!
b00000001 #
b11111111 %
1'
1-
b00000001 /
b11111111 1
b00000001 2
13
b11111111 ;
1=
#102000000
0!
0-
03
#103000000
1!
0&
1-
13
0<
b00000010 >
b11111111 D
b100 E
#104000000
0!
0-
03
#105000000
1!
0'
1-
13
0=
b11111100 ?
b101 E
#106000000
0!
0-
03
#107000000
1!
1&
b00000010 (
1-
13
b00000010 :
1<
b1 E
#108000000
0!
0-
03
#109000000
1!
b00000010 #
b01001100 %
1'
1-
b00000010 /
b01001100 1
b00000010 2
13
b01001100 ;
1=
#110000000
0!
0-
03
#111000000
1!
0&
1-
13
0<
b00000011 >
b01001100 A
b1100 B
b0100 C
b10 E
#112000000
0!
0-
03
#113000000
1!
1&
0'
b00000011 (
1-
13
b00000011 :
1<
0=
b11 E
#114000000
0!
0-
03
#115000000
1!
b00000011 #
b00000000 %
1'
1-
b00000011 /
b00000000 1
b00000011 2
13
b00000000 ;
1=
#116000000
0!
0-
03
#117000000
1!
0&
1-
13
0<
b00000100 >
b00000000 D
b100 E
#118000000
0!
0-
03
#119000000
1!
0'
1-
13
0=
b00000000 >
b101 E
#120000000
0!
0-
03
#121000000
1!
1&
b00000000 (
1-
13
b00000000 :
1<
b1 E
#122000000
0!
0-
03
#123000000
1!
b00000000 #
b00001010 %
1'
1-
b00000000 /
b00001010 1
b00000000 2
13
b00001010 ;
1=
#124000000
0!
0-
03
#125000000
1!
0&
1-
13
0<
b00000001 >
b00001010 A
b1010 B
b0000 C
b10 E
#126000000
0!
0-
03
#127000000
1!
1&
0'
b00000001 (
1-
13
b00000001 :
1<
0=
b11 E
#128000000
0!
0-
03
#129000000
1!
b00000001 #
b11111111 %
1'
1-
b00000001 /
b11111111 1
b00000001 2
13
b11111111 ;
1=
#130000000
0!
0-
03
#131000000
1!
0&
1-
13
0<
b00000010 >
b11111111 D
b100 E
#132000000
0!
0-
03
#133000000
1!
0'
1-
13
0=
b11111011 ?
b101 E
#134000000
0!
0-
03
#135000000
1!
1&
b00000010 (
1-
13
b00000010 :
1<
b1 E
#136000000
0!
0-
03
#137000000
1!
b00000010 #
b01001100 %
1'
1-
b00000010 /
b01001100 1
b00000010 2
13
b01001100 ;
1=
#138000000
0!
0-
03
#139000000
1!
0&
1-
13
0<
b00000011 >
b01001100 A
b1100 B
b0100 C
b10 E
#140000000
0!
0-
03
#141000000
1!
1&
0'
b00000011 (
1-
13
b00000011 :
1<
0=
b11 E
#142000000
0!
0-
03
#143000000
1!
b00000011 #
b00000000 %
1'
1-
b00000011 /
b00000000 1
b00000011 2
13
b00000000 ;
1=
#144000000
0!
0-
03
#145000000
1!
0&
1-
13
0<
b00000100 >
b00000000 D
b100 E
#146000000
0!
0-
03
#147000000
1!
0'
1-
13
0=
b00000000 >
b101 E
#148000000
0!
0-
03
#149000000
1!
1&
b00000000 (
1-
13
b00000000 :
1<
b1 E
#150000000
0!
0-
03
#151000000
1!
b00000000 #
b00001010 %
1'
1-
b00000000 /
b00001010 1
b00000000 2
13
b00001010 ;
1=
#152000000
0!
0-
03
#153000000
1!
0&
1-
13
0<
b00000001 >
b00001010 A
b1010 B
b0000 C
b10 E
#154000000
0!
0-
03
#155000000
1!
1&
0'
b00000001 (
1-
13
b00000001 :
1<
0=
b11 E
#156000000
0!
0-
03
#157000000
1!
b00000001 #
b11111111 %
1'
1-
b00000001 /
b11111111 1
b00000001 2
13
b11111111 ;
1=
#158000000
0!
0-
03
#159000000
1!
0&
1-
13
0<
b00000010 >
b11111111 D
b100 E
#160000000
0!
0-
03
#161000000
1!
0'
1-
13
0=
b11111010 ?
b101 E
#162000000
0!
0-
03
#163000000
1!
1&
b00000010 (
1-
13
b00000010 :
1<
b1 E
#164000000
0!
0-
03
#165000000
1!
b00000010 #
b01001100 %
1'
1-
b00000010 /
b01001100 1
b00000010 2
13
b01001100 ;
1=
#166000000
0!
0-
03
#167000000
1!
0&
1-
13
0<
b00000011 >
b01001100 A
b1100 B
b0100 C
b10 E
#168000000
0!
0-
03
#169000000
1!
1&
0'
b00000011 (
1-
13
b00000011 :
1<
0=
b11 E
#170000000
0!
0-
03
#171000000
1!
b00000011 #
b00000000 %
1'
1-
b00000011 /
b00000000 1
b00000011 2
13
b00000000 ;
1=
#172000000
0!
0-
03
#173000000
1!
0&
1-
13
0<
b00000100 >
b00000000 D
b100 E
#174000000
0!
0-
03
#175000000
1!
0'
1-
13
0=
b00000000 >
b101 E
#176000000
0!
0-
03
#177000000
1!
1&
b00000000 (
1-
13
b00000000 :
1<
b1 E
#178000000
0!
0-
03
#179000000
1!
b00000000 #
b00001010 %
1'
1-
b00000000 /
b00001010 1
b00000000 2
13
b00001010 ;
1=
#180000000
0!
0-
03
#181000000
1!
0&
1-
13
0<
b00000001 >
b00001010 A
b1010 B
b0000 C
b10 E
#182000000
0!
0-
03
#183000000
1!
1&
0'
b00000001 (
1-
13
b00000001 :
1<
0=
b11 E
#184000000
0!
0-
03
#185000000
1!
b00000001 #
b11111111 %
1'
1-
b00000001 /
b11111111 1
b00000001 2
13
b11111111 ;
1=
#186000000
0!
0-
03
#187000000
1!
0&
1-
13
0<
b00000010 >
b11111111 D
b100 E
#188000000
0!
0-
03
#189000000
1!
0'
1-
13
0=
b11111001 ?
b101 E
#190000000
0!
0-
03
#191000000
1!
1&
b00000010 (
1-
13
b00000010 :
1<
b1 E
#192000000
0!
0-
03
#193000000
1!
b00000010 #
b01001100 %
1'
1-
b00000010 /
b01001100 1
b00000010 2
13
b01001100 ;
1=
#194000000
0!
0-
03
#195000000
1!
0&
1-
13
0<
b00000011 >
b01001100 A
b1100 B
b0100 C
b10 E
#196000000
0!
0-
03
#197000000
1!
1&
0'
b00000011 (
1-
13
b00000011 :
1<
0=
b11 E
#198000000
0!
0-
03
#199000000
1!
b00000011 #
b00000000 %
1'
1-
b00000011 /
b00000000 1
b00000011 2
13
b00000000 ;
1=
#200000000
0!
0-
03
#201000000
1!
0&
1-
13
0<
b00000100 >
b00000000 D
b100 E
#202000000
0!
0-
03
#203000000
1!
0'
1-
13
0=
b00000000 >
b101 E
#204000000
0!
0-
03
#205000000
1!
1&
b00000000 (
1-
13
b00000000 :
1<
b1 E
#206000000
0!
0-
03
#207000000
1!
b00000000 #
b00001010 %
1'
1-
b00000000 /
b00001010 1
b00000000 2
13
b00001010 ;
1=
#208000000
0!
0-
03
#209000000
1!
0&
1-
13
0<
b00000001 >
b00001010 A
b1010 B
b0000 C
b10 E
#210000000
0!
0-
03
#211000000
1!
1&
0'
b00000001 (
1-
13
b00000001 :
1<
0=
b11 E
#212000000
0!
0-
03
#213000000
1!
b00000001 #
b11111111 %
1'
1-
b00000001 /
b11111111 1
b00000001 2
13
b11111111 ;
1=
#214000000
0!
0-
03
#215000000
1!
0&
1-
13
0<
b00000010 >
b11111111 D
b100 E
#216000000
0!
0-
03
#217000000
1!
0'
1-
13
0=
b11111000 ?
b101 E
#218000000
0!
0-
03
#219000000
1!
1&
b00000010 (
1-
13
b00000010 :
1<
b1 E
#220000000
0!
0-
03
#221000000
1!
b00000010 #
b01001100 %
1'
1-
b00000010 /
b01001100 1
b00000010 2
13
b01001100 ;
1=
#222000000
0!
0-
03
#223000000
1!
0&
1-
13
0<
b00000011 >
b01001100 A
b1100 B
b0100 C
b10 E
#224000000
0!
0-
03
#225000000
1!
1&
0'
b00000011 (
1-
13
b00000011 :
1<
0=
b11 E
#226000000
0!
0-
03
#227000000
1!
b00000011 #
b00000000 %
1'
1-
b00000011 /
b00000000 1
b00000011 2
13
b00000000 ;
1=
#228000000
0!
0-
03
#229000000
1!
0&
1-
13
0<
b00000100 >
b00000000 D
b100 E
#230000000
0!
0-
03
#231000000
1!
0'
1-
13
0=
b00000000 >
b101 E
#232000000
0!
0-
03
#233000000
1!
1&
b00000000 (
1-
13
b00000000 :
1<
b1 E
#234000000
0!
0-
03
#235000000
1!
b00000000 #
b00001010 %
1'
1-
b00000000 /
b00001010 1
b00000000 2
13
b00001010 ;
1=
#236000000
0!
0-
03
#237000000
1!
0&
1-
13
0<
b00000001 >
b00001010 A
b1010 B
b0000 C
b10 E
#238000000
0!
0-
03
#239000000
1!
1&
0'
b00000001 (
1-
13
b00000001 :
1<
0=
b11 E
#240000000
0!
0-
03
#241000000
1!
b00000001 #
b11111111 %
1'
1-
b00000001 /
b11111111 1
b00000001 2
13
b11111111 ;
1=
#242000000
0!
0-
03
#243000000
1!
0&
1-
13
0<
b00000010 >
b11111111 D
b100 E
#244000000
0!
0-
03
#245000000
1!
0'
1-
13
0=
b11110111 ?
b101 E
#246000000
0!
0-
03
#247000000
1!
1&
b00000010 (
1-
13
b00000010 :
1<
b1 E
#248000000
0!
0-
03
#249000000
1!
b00000010 #
b01001100 %
1'
1-
b00000010 /
b01001100 1
b00000010 2
13
b01001100 ;
1=
#250000000
0!
0-
03
#251000000
1!
0&
1-
13
0<
b00000011 >
b01001100 A
b1100 B
b0100 C
b10 E
#252000000
0!
0-
03
#253000000
1!
1&
0'
b00000011 (
1-
13
b00000011 :
1<
0=
b11 E
#254000000
0!
0-
03
#255000000
1!
b00000011 #
b00000000 %
1'
1-
b00000011 /
b00000000 1
b00000011 2
13
b00000000 ;
1=
#256000000
0!
0-
03
#257000000
1!
0&
1-
13
0<
b00000100 >
b00000000 D
b100 E
#258000000
0!
0-
03
#259000000
1!
0'
1-
13
0=
b00000000 >
b101 E
#260000000
0!
0-
03
#261000000
1!
1&
b00000000 (
1-
13
b00000000 :
1<
b1 E
#262000000
0!
0-
03
#263000000
1!
b00000000 #
b00001010 %
1'
1-
b00000000 /
b00001010 1
b00000000 2
13
b00001010 ;
1=
#264000000
0!
0-
03
#265000000
1!
0&
1-
13
0<
b00000001 >
b00001010 A
b1010 B
b0000 C
b10 E
#266000000
0!
0-
03
#267000000
1!
1&
0'
b00000001 (
1-
13
b00000001 :
1<
0=
b11 E
#268000000
0!
0-
03
#269000000
1!
b00000001 #
b11111111 %
1'
1-
b00000001 /
b11111111 1
b00000001 2
13
b11111111 ;
1=
#270000000
0!
0-
03
#271000000
1!
0&
1-
13
0<
b00000010 >
b11111111 D
b100 E
#272000000
0!
0-
03
#273000000
1!
0'
1-
13
0=
b11110110 ?
b101 E
#274000000
0!
0-
03
#275000000
1!
1&
b00000010 (
1-
13
b00000010 :
1<
b1 E
#276000000
0!
0-
03
#277000000
1!
b00000010 #
b01001100 %
1'
1-
b00000010 /
b01001100 1
b00000010 2
13
b01001100 ;
1=
#278000000
0!
0-
03
#279000000
1!
0&
1-
13
0<
b00000011 >
b01001100 A
b1100 B
b0100 C
b10 E
#280000000
0!
0-
03
#281000000
1!
1&
0'
b00000011 (
1-
13
b00000011 :
1<
0=
b11 E
#282000000
0!
0-
03
#283000000
1!
b00000011 #
b00000000 %
1'
1-
b00000011 /
b00000000 1
b00000011 2
13
b00000000 ;
1=
#284000000
0!
0-
03
#285000000
1!
0&
1-
13
0<
b00000100 >
b00000000 D
b100 E
#286000000
0!
0-
03
#287000000
1!
0'
1-
13
0=
b00000000 >
b101 E
#288000000
0!
0-
03
#289000000
1!
1&
b00000000 (
1-
13
b00000000 :
1<
b1 E
#290000000
0!
0-
03
#291000000
1!
b00000000 #
b00001010 %
1'
1-
b00000000 /
b00001010 1
b00000000 2
13
b00001010 ;
1=
#292000000
0!
0-
03
#293000000
1!
0&
1-
13
0<
b00000001 >
b00001010 A
b1010 B
b0000 C
b10 E
#294000000
0!
0-
03
#295000000
1!
1&
0'
b00000001 (
1-
13
b00000001 :
1<
0=
b11 E
#296000000
0!
0-
03
#297000000
1!
b00000001 #
b11111111 %
1'
1-
b00000001 /
b11111111 1
b00000001 2
13
b11111111 ;
1=
#298000000
0!
0-
03
#299000000
1!
0&
1-
13
0<
b00000010 >
b11111111 D
b100 E
#300000000
0!
0-
03
#301000000
1!
0'
1-
13
0=
b11110101 ?
b101 E
#302000000
0!
0-
03
#303000000
1!
1&
b00000010 (
1-
13
b00000010 :
1<
b1 E
#304000000
0!
0-
03
#305000000
1!
b00000010 #
b01001100 %
1'
1-
b00000010 /
b01001100 1
b00000010 2
13
b01001100 ;
1=
#306000000
0!
0-
03
#307000000
1!
0&
1-
13
0<
b00000011 >
b01001100 A
b1100 B
b0100 C
b10 E
#308000000
0!
0-
03
#309000000
1!
1&
0'
b00000011 (
1-
13
b00000011 :
1<
0=
b11 E
#310000000
0!
0-
03
#311000000
1!
b00000011 #
b00000000 %
1'
1-
b00000011 /
b00000000 1
b00000011 2
13
b00000000 ;
1=
#312000000
0!
0-
03
#313000000
1!
0&
1-
13
0<
b00000100 >
b00000000 D
b100 E
#314000000
0!
0-
03
#315000000
1!
0'
1-
13
0=
b00000000 >
b101 E
#316000000
0!
0-
03
#317000000
1!
1&
b00000000 (
1-
13
b00000000 :
1<
b1 E
#318000000
0!
0-
03
#319000000
1!
b00000000 #
b00001010 %
1'
1-
b00000000 /
b00001010 1
b00000000 2
13
b00001010 ;
1=
#320000000
0!
0-
03
#321000000
1!
0&
1-
13
0<
b00000001 >
b00001010 A
b1010 B
b0000 C
b10 E
#322000000
0!
0-
03
#323000000
1!
1&
0'
b00000001 (
1-
13
b00000001 :
1<
0=
b11 E
#324000000
0!
0-
03
#325000000
1!
b00000001 #
b11111111 %
1'
1-
b00000001 /
b11111111 1
b00000001 2
13
b11111111 ;
1=
#326000000
0!
0-
03
#327000000
1!
0&
1-
13
0<
b00000010 >
b11111111 D
b100 E
#328000000
0!
0-
03
#329000000
1!
0'
1-
13
0=
b11110100 ?
b101 E
#330000000
0!
0-
03
#331000000
1!
1&
b00000010 (
1-
13
b00000010 :
1<
b1 E
#332000000
0!
0-
03
#333000000
1!
b00000010 #
b01001100 %
1'
1-
b00000010 /
b01001100 1
b00000010 2
13
b01001100 ;
1=
#334000000
0!
0-
03
#335000000
1!
0&
1-
13
0<
b00000011 >
b01001100 A
b1100 B
b0100 C
b10 E
#336000000
0!
0-
03
#337000000
1!
1&
0'
b00000011 (
1-
13
b00000011 :
1<
0=
b11 E
#338000000
0!
0-
03
#339000000
1!
b00000011 #
b00000000 %
1'
1-
b00000011 /
b00000000 1
b00000011 2
13
b00000000 ;
1=
#340000000
0!
0-
03
#341000000
1!
0&
1-
13
0<
b00000100 >
b00000000 D
b100 E
#342000000
0!
0-
03
#343000000
1!
0'
1-
13
0=
b00000000 >
b101 E
#344000000
0!
0-
03
#345000000
1!
1&
b00000000 (
1-
13
b00000000 :
1<
b1 E
#346000000
0!
0-
03
#347000000
1!
b00000000 #
b00001010 %
1'
1-
b00000000 /
b00001010 1
b00000000 2
13
b00001010 ;
1=
#348000000
0!
0-
03
#349000000
1!
0&
1-
13
0<
b00000001 >
b00001010 A
b1010 B
b0000 C
b10 E
#350000000
0!
0-
03
#351000000
1!
1&
0'
b00000001 (
1-
13
b00000001 :
1<
0=
b11 E
#352000000
0!
0-
03
#353000000
1!
b00000001 #
b11111111 %
1'
1-
b00000001 /
b11111111 1
b00000001 2
13
b11111111 ;
1=
#354000000
0!
0-
03
#355000000
1!
0&
1-
13
0<
b00000010 >
b11111111 D
b100 E
#356000000
0!
0-
03
#357000000
1!
0'
1-
13
0=
b11110011 ?
b101 E
#358000000
0!
0-
03
#359000000
1!
1&
b00000010 (
1-
13
b00000010 :
1<
b1 E
#360000000
0!
0-
03
#361000000
1!
b00000010 #
b01001100 %
1'
1-
b00000010 /
b01001100 1
b00000010 2
13
b01001100 ;
1=
#362000000
0!
0-
03
#363000000
1!
0&
1-
13
0<
b00000011 >
b01001100 A
b1100 B
b0100 C
b10 E
#364000000
0!
0-
03
#365000000
1!
1&
0'
b00000011 (
1-
13
b00000011 :
1<
0=
b11 E
#366000000
0!
0-
03
#367000000
1!
b00000011 #
b00000000 %
1'
1-
b00000011 /
b00000000 1
b00000011 2
13
b00000000 ;
1=
#368000000
0!
0-
03
#369000000
1!
0&
1-
13
0<
b00000100 >
b00000000 D
b100 E
#370000000
0!
0-
03
#371000000
1!
0'
1-
13
0=
b00000000 >
b101 E
#372000000
0!
0-
03
#373000000
1!
1&
b00000000 (
1-
13
b00000000 :
1<
b1 E
#374000000
0!
0-
03
#375000000
1!
b00000000 #
b00001010 %
1'
1-
b00000000 /
b00001010 1
b00000000 2
13
b00001010 ;
1=
#376000000
0!
0-
03
#377000000
1!
0&
1-
13
0<
b00000001 >
b00001010 A
b1010 B
b0000 C
b10 E
#378000000
0!
0-
03
#379000000
1!
1&
0'
b00000001 (
1-
13
b00000001 :
1<
0=
b11 E
#380000000
0!
0-
03
#381000000
1!
b00000001 #
b11111111 %
1'
1-
b00000001 /
b11111111 1
b00000001 2
13
b11111111 ;
1=
#382000000
0!
0-
03
#383000000
1!
0&
1-
13
0<
b00000010 >
b11111111 D
b100 E
#384000000
0!
0-
03
#385000000
1!
0'
1-
13
0=
b11110010 ?
b101 E
#386000000
0!
0-
03
#387000000
1!
1&
b00000010 (
1-
13
b00000010 :
1<
b1 E
#388000000
0!
0-
03
#389000000
1!
b00000010 #
b01001100 %
1'
1-
b00000010 /
b01001100 1
b00000010 2
13
b01001100 ;
1=
#390000000
0!
0-
03
#391000000
1!
0&
1-
13
0<
b00000011 >
b01001100 A
b1100 B
b0100 C
b10 E
#392000000
0!
0-
03
#393000000
1!
1&
0'
b00000011 (
1-
13
b00000011 :
1<
0=
b11 E
#394000000
0!
0-
03
#395000000
1!
b00000011 #
b00000000 %
1'
1-
b00000011 /
b00000000 1
b00000011 2
13
b00000000 ;
1=
#396000000
0!
0-
03
#397000000
1!
0&
1-
13
0<
b00000100 >
b00000000 D
b100 E
#398000000
0!
0-
03
#399000000
1!
0'
1-
13
0=
b00000000 >
b101 E
#400000000
0!
0-
03
#401000000
1!
1&
b00000000 (
1-
13
b00000000 :
1<
b1 E
#402000000
0!
0-
03
#403000000
1!
b00000000 #
b00001010 %
1'
1-
b00000000 /
b00001010 1
b00000000 2
13
b00001010 ;
1=
#404000000
0!
0-
03
#405000000
1!
0&
1-
13
0<
b00000001 >
b00001010 A
b1010 B
b0000 C
b10 E
#406000000
0!
0-
03
#407000000
1!
1&
0'
b00000001 (
1-
13
b00000001 :
1<
0=
b11 E
#408000000
0!
0-
03
#409000000
1!
b00000001 #
b11111111 %
1'
1-
b00000001 /
b11111111 1
b00000001 2
13
b11111111 ;
1=
#410000000
0!
0-
03
#411000000
1!
0&
1-
13
0<
b00000010 >
b11111111 D
b100 E
#412000000
0!
0-
03
#413000000
1!
0'
1-
13
0=
b11110001 ?
b101 E
#414000000
0!
0-
03
#415000000
1!
1&
b00000010 (
1-
13
b00000010 :
1<
b1 E
#416000000
0!
0-
03
#417000000
1!
b00000010 #
b01001100 %
1'
1-
b00000010 /
b01001100 1
b00000010 2
13
b01001100 ;
1=
#418000000
0!
0-
03
#419000000
1!
0&
1-
13
0<
b00000011 >
b01001100 A
b1100 B
b0100 C
b10 E
#420000000
0!
0-
03
#421000000
1!
1&
0'
b00000011 (
1-
13
b00000011 :
1<
0=
b11 E
#422000000
0!
0-
03
#423000000
1!
b00000011 #
b00000000 %
1'
1-
b00000011 /
b00000000 1
b00000011 2
13
b00000000 ;
1=
#424000000
0!
0-
03
#425000000
1!
0&
1-
13
0<
b00000100 >
b00000000 D
b100 E
#426000000
0!
0-
03
#427000000
1!
0'
1-
13
0=
b00000000 >
b101 E
#428000000
0!
0-
03
#429000000
1!
1&
b00000000 (
1-
13
b00000000 :
1<
b1 E
#430000000
0!
0-
03
#431000000
1!
b00000000 #
b00001010 %
1'
1-
b00000000 /
b00001010 1
b00000000 2
13
b00001010 ;
1=
#432000000
0!
0-
03
#433000000
1!
0&
1-
13
0<
b00000001 >
b00001010 A
b1010 B
b0000 C
b10 E
#434000000
0!
0-
03
#435000000
1!
1&
0'
b00000001 (
1-
13
b00000001 :
1<
0=
b11 E
#436000000
0!
0-
03
#437000000
1!
b00000001 #
b11111111 %
1'
1-
b00000001 /
b11111111 1
b00000001 2
13
b11111111 ;
1=
#438000000
0!
0-
03
#439000000
1!
0&
1-
13
0<
b00000010 >
b11111111 D
b100 E
#440000000
0!
0-
03
#441000000
1!
0'
1-
13
0=
b11110000 ?
b101 E
#442000000
0!
0-
03
#443000000
1!
1&
b00000010 (
1-
13
b00000010 :
1<
b1 E
#444000000
0!
0-
03
#445000000
1!
b00000010 #
b01001100 %
1'
1-
b00000010 /
b01001100 1
b00000010 2
13
b01001100 ;
1=
#446000000
0!
0-
03
#447000000
1!
0&
1-
13
0<
b00000011 >
b01001100 A
b1100 B
b0100 C
b10 E
#448000000
0!
0-
03
#449000000
1!
1&
0'
b00000011 (
1-
13
b00000011 :
1<
0=
b11 E
#450000000
0!
0-
03
#451000000
1!
b00000011 #
b00000000 %
1'
1-
b00000011 /
b00000000 1
b00000011 2
13
b00000000 ;
1=
#452000000
0!
0-
03
#453000000
1!
0&
1-
13
0<
b00000100 >
b00000000 D
b100 E
#454000000
0!
0-
03
#455000000
1!
0'
1-
13
0=
b00000000 >
b101 E
#456000000
0!
0-
03
#457000000
1!
1&
b00000000 (
1-
13
b00000000 :
1<
b1 E
#458000000
0!
0-
03
#459000000
1!
b00000000 #
b00001010 %
1'
1-
b00000000 /
b00001010 1
b00000000 2
13
b00001010 ;
1=
#460000000
0!
0-
03
#461000000
1!
0&
1-
13
0<
b00000001 >
b00001010 A
b1010 B
b0000 C
b10 E
